{
  "type": "COG",
  "author": [
    "odinair"
  ],
  "min_python_version": [
    3,
    8,
    0
  ],
  "min_bot_version": "3.4.6",
  "install_msg": "**These cogs are unmaintained, and will not receive any updates going forward.**",
  "end_user_data_statement": "This cog stores end-user provided data and user IDs to provide basic functionality",
  "requirements": [
    "https://py.odinair.xyz/red-icu/red-icu-v0.0.2.tar.gz"
  ],
  "description": "Create fancy persistant reaction polls",
  "tags": [
    "poll",
    "utility"
  ],
  "short": "Create fancy persistant reaction polls"
}